file,title,nMDCG k=1,nMDCG k=3,nMDCG k=5,nMDCG k=10,Average R-Precision k=11
files/output_hw_nostemmer_TfIdf.tsv,nostemmer_TfIdf,0.23873873873873874,0.22522522522522523,0.23563738420233157,0.2606972771514694,0.13144963144963145
files/output_hw_nostemmer_countscorer.tsv,nostemmer_countscorer,0.031531531531531529,0.031531531531531529,0.033654201720502513,0.037029282734990024,0.025389025389025391
files/output_hw_EnglishStemmer_TfIdf.tsv,EnglishStemmer_TfIdf,0.25675675675675674,0.22972972972972974,0.24209373762886754,0.27133644369907833,0.13923013923013924
files/output_hw_EnglishStemmer_stopwords_TfIdf.tsv,EnglishStemmer_stopwords_TfIdf,0.24774774774774774,0.20945945945945946,0.23578371829637476,0.25454773898669525,0.13513513513513514
files/output_hw_EnglishStemmer_stopwords_countscorer.tsv,EnglishStemmer_stopwords_countscorer,0.23873873873873874,0.22297297297297297,0.21365673146803021,0.22859281696019054,0.1162981162981163
files/output_hw_EnglishStemmer_stopwords_BM25.tsv,EnglishStemmer_stopwords_BM25,0.30180180180180183,0.34684684684684686,0.34006901401245543,0.37183036160246763,0.18837018837018835
files/output_hw_EnglishStemmer_stopwords_BM25_title.tsv,EnglishStemmer_stopwords_BM25_title,0.27027027027027029,0.29054054054054052,0.28735836790078223,0.30394727013798045,0.15192465192465196
files/output_hw_EnglishStemmer_stopwords_BM25_text.tsv,EnglishStemmer_stopwords_BM25_text,0.2927927927927928,0.31306306306306309,0.32322430971388261,0.35025026139773391,0.17649467649467651
EnglishStemmer_stopwords_BM25_ag.tsv,EnglishStemmer_stopwords_BM25_aggregated,0.076576576576576572,0.096846846846846843,0.12019027708584325,0.16201259432176016,0.13185913185913184
files/output_hw_EnglishStemmer_countscorer.tsv,EnglishStemmer_countscorer,0.045045045045045043,0.038288288288288286,0.038460798759764096,0.047059139739350671,0.028665028665028663
files/output_hw_EnglishStemmer_BM25.tsv,EnglishStemmer_BM25,0.30180180180180183,0.36036036036036034,0.34421472927587987,0.36748683400971177,0.17649467649467646
files/output_hw_nostemmer_BM25.tsv,nostemmer_BM25,0.30180180180180183,0.30630630630630629,0.31781985170246507,0.34149960298516013,0.16912366912366913
